{
	"Id":"BanditsAmbush",
	"Text":"You have been ambushed by bandits!",
	"AttackersGroup":"bandits",
	"IconId":"forest",
	"FightLocations":
	[
		"woods_1",
		"woods_2",
	],
	"Choices":
	[
		{
			"Text":"Try to to bribe them",
			"Outcomes":
			[
				{
					"EventId":"BanditsBribe",
				}
			]
		}
		{
			"Text":"Fight",
			"Event":"",
			"Fight":true
		}
	]
}