{
	"id":"woods_2",
	"map":
	[
		"gggggggggggg",
		"gggffgggggff",
		"gggffgggggff",
		"gggggfffggff",
		"gfffffffggff",
		"gfffffffgggf",
		"gggggfffgggg",
		"gggggggggggg",
		"gfgggggggggf"
	],
	"tileObject":
	[
		{
			"id":"ruins",
			"x":4,
			"y":4
		}
	]
}
